…
Get the total count of employers

``` r
network %>% 
  count(Company) %>% 
  arrange(-n)
```

    ## # A tibble: 392 x 2
    ##    Company                                                 n
    ##    <chr>                                               <int>
    ##  1 McGill University - Desautels Faculty of Management    18
    ##  2 <NA>                                                   18
    ##  3 Global Affairs Canada | Affaires mondiales Canada       9
    ##  4 Rogers Communications                                   6
    ##  5 Scotiabank                                              6
    ##  6 University of Waterloo                                  6
    ##  7 Air Transat                                             5
    ##  8 Novartis                                                5
    ##  9 Sia Partners                                            5
    ## 10 TJX Canada/Winners Merchants International L.P.         5
    ## # ... with 382 more rows
…
